<svg width="323" height="513" viewBox="0 0 323 513" fill="none" xmlns="http://www.w3.org/2000/svg">
	<path d="M269.137 229.249L212.922 218.964L247.176 31.7606C250.016 16.241 264.902 5.95977 280.426 8.79961C295.949 11.6395 306.23 26.5262 303.391 42.0496L269.137 229.249Z" fill="#59C2E8"/>
	<path d="M234.465 101.238L212.922 218.965L269.137 229.25L284.828 143.496C266.629 123.051 247.512 109.285 234.465 101.238V101.238Z" fill="#00AEDE"/>
	<path d="M280.426 8.79961C264.902 5.95977 250.016 16.241 247.176 31.7606L241.176 64.5652L297.387 74.8504L303.391 42.0496C306.23 26.5262 295.949 11.6395 280.426 8.79961V8.79961Z" fill="#FFABCD"/>
	<path d="M291.145 93.988L240.234 84.6716C229.398 82.6872 222.223 72.2966 224.203 61.4606C226.187 50.6208 236.578 43.445 247.418 45.4294L298.328 54.7458C309.164 56.7262 316.34 67.1208 314.359 77.9567C312.375 88.7926 301.98 95.9684 291.145 93.988V93.988Z" fill="#C6C6C6"/>
	<path d="M145.781 269.627L76.0979 281.151L45.2659 94.7131C42.6877 79.1037 45.1135 63.0764 52.1995 48.928L59.0198 35.3108C63.551 26.26 75.6018 24.2639 82.8088 31.3772L93.6526 42.0764C104.914 53.1858 112.371 67.5803 114.953 83.1897L145.781 269.627Z" fill="#FFBE73"/>
	<path d="M45.2656 94.7148L76.0977 281.152L145.781 269.629L114.953 83.1914L93.2734 95.0547C86.0586 99.0039 77.7148 100.383 69.6094 98.9648L45.2656 94.7148Z" fill="#F4E74D"/>
	<path d="M55.168 154.584L76.0977 281.15L145.781 269.627L123.621 135.611C110.309 142.631 87.4844 151.74 55.168 154.584V154.584Z" fill="#DFCA00"/>
	<path d="M100.914 50.4006C98.707 47.4631 96.2891 44.6741 93.6523 42.0764L82.8086 31.3772C75.6016 24.2639 63.5508 26.26 59.0195 35.3108L52.1992 48.928C50.5391 52.2405 49.1445 55.6584 48 59.1506C55.4609 63.7092 65.4805 65.6897 75.9766 63.9553C86.4687 62.2209 95.3164 57.1155 100.914 50.4006Z" fill="#767678"/>
	<path d="M193.344 293.933L145.781 288.155L167.383 110.292C168.98 97.1554 180.918 87.8039 194.055 89.3976C207.187 90.9953 216.539 102.933 214.945 116.069L193.344 293.933Z" fill="#A8A8A8"/>
	<path d="M213.801 505.328H99.168C48.9297 505.328 8.19922 464.602 8.19922 414.359L8.19922 231.016C8.19922 205.418 28.9531 184.664 54.5547 184.664H258.414C284.016 184.664 304.77 205.418 304.77 231.016V414.359C304.77 464.602 264.039 505.328 213.801 505.328V505.328Z" fill="#FD6F71"/>
	<path d="M8.19922 231.016L8.19922 414.359C8.19922 464.602 48.9297 505.328 99.168 505.328H143.965C110.492 476.617 109.867 428.289 109.867 428.289C109.867 428.289 109.859 369.156 109.855 322.602C109.855 294.012 119.648 266.305 137.504 243.977C160.164 215.645 156.484 184.664 156.484 184.664H54.5547C28.9531 184.664 8.19922 205.418 8.19922 231.016Z" fill="#E36465"/>
	<path d="M202.027 222.424C188.945 220.834 179.629 208.94 181.219 195.858L187.949 140.44C189.539 127.358 201.43 118.041 214.512 119.627C227.594 121.217 236.91 133.111 235.324 146.193L228.594 201.611C227.004 214.693 215.113 224.01 202.027 222.424Z" fill="#73DA8C"/>
	<path d="M100.668 318.352C100.668 309.273 91.4258 301.918 80.0273 301.918C68.625 301.918 59.3867 309.273 59.3867 318.352C59.3867 327.43 68.625 334.789 80.0273 334.789C91.4258 334.789 100.668 327.43 100.668 318.352V318.352Z" fill="white"/>
	<path d="M253.582 318.352C253.582 309.273 244.344 301.918 232.941 301.918C221.543 301.918 212.301 309.273 212.301 318.352C212.301 327.43 221.543 334.789 232.941 334.789C244.344 334.789 253.582 327.43 253.582 318.352V318.352Z" fill="white"/>
	<path d="M156.484 321.125C163.625 321.125 170.226 317.562 174.144 311.594C176.418 308.133 175.457 303.484 171.992 301.211C170.726 300.375 165.113 298.215 161.609 303.359C159.926 305.828 157.48 306.125 156.484 306.125C155.492 306.125 153 305.855 151.363 303.359C149.086 299.898 144.437 298.933 140.976 301.211C137.515 303.484 136.551 308.133 138.824 311.594C142.746 317.562 149.344 321.125 156.484 321.125Z" fill="black"/>
	<path d="M92.293 306.875C93.1523 306.012 94.1562 305.883 94.6797 305.883C95.2031 305.883 96.1328 306.094 97.0664 306.875C101.801 310.836 106.207 308.336 107.672 306.875C110.602 303.945 110.602 299.195 107.672 296.266C104.203 292.797 99.5859 290.887 94.6797 290.887C89.7695 290.887 85.1562 292.797 81.6836 296.266C78.7539 299.195 78.7539 303.945 81.6875 306.875C84.6133 309.801 89.3633 309.801 92.293 306.875Z" fill="black"/>
	<path d="M215.906 306.873C216.766 306.01 217.77 305.881 218.293 305.881C218.812 305.881 219.746 306.092 220.68 306.873C225.414 310.834 229.82 308.334 231.285 306.873C234.215 303.943 234.215 299.193 231.285 296.264C227.816 292.795 223.199 290.885 218.293 290.885C213.387 290.885 208.77 292.795 205.297 296.264C202.371 299.193 202.371 303.943 205.301 306.873C208.227 309.799 212.977 309.799 215.906 306.873Z" fill="black"/>
	<path d="M309.352 51.1402L310.77 43.398C314.348 23.8316 301.34 5.00351 281.777 1.42147C262.203 -2.16056 243.379 10.8473 239.797 30.4137L238.387 38.1363C234.785 38.8629 220.789 41.6754 216.824 60.109C212.922 78.2574 226.102 86.3355 229.207 88.2926L223.875 114.687C224.27 98.6949 211.156 83.9215 194.957 81.9527C177.734 79.8629 162.031 92.1676 159.938 109.386L151.707 177.164H138.094L122.352 81.9684C119.492 64.6832 111.391 49.0426 98.918 36.7379L88.0742 26.0387C82.9102 20.9449 75.8437 18.6988 68.6836 19.8863C61.5273 21.0699 55.5586 25.4683 52.3125 31.9527L45.4922 45.5738C37.6445 61.2418 35.0078 78.6559 37.8672 95.941L51.3164 177.269C23.125 178.949 0.699219 202.41 0.699219 231.019L0.699219 256.41C0.699219 260.554 4.05469 263.91 8.19922 263.91C12.3437 263.91 15.6992 260.554 15.6992 256.41V231.019C15.6992 209.593 33.1289 192.164 54.5547 192.164H174.113C174.113 192.164 168.477 227.062 201.125 229.871C231.902 232.519 235.027 210.836 236.039 202.519L237.297 192.164H258.414C279.84 192.164 297.27 209.593 297.27 231.019V414.359C297.27 460.382 259.824 497.828 213.801 497.828H99.168C53.1445 497.828 15.6992 460.382 15.6992 414.359L15.6992 287.054C15.6992 282.914 12.3437 279.554 8.19922 279.554C4.05469 279.554 0.699219 282.914 0.699219 287.054L0.699219 414.359C0.699219 468.656 44.8711 512.828 99.168 512.828H213.801C268.098 512.828 312.27 468.656 312.27 414.359V231.015C312.27 210.988 301.27 193.488 285 184.211L300.184 101.25C310.926 99.0504 319.688 90.4996 321.734 79.3082C323.812 67.9605 318.555 56.9488 309.352 51.1402V51.1402ZM279.078 16.1754C290.508 18.2652 298.105 29.2691 296.012 40.6988L294.949 46.4996L253.492 38.9137L254.555 33.1129C256.645 21.6832 267.641 14.0855 279.078 16.1754ZM122.891 177.164H66.5039L54.3906 103.921C54.3906 103.921 73.3086 107.004 75.8125 107.004C83.1289 107.004 90.4102 105.168 96.875 101.632L109.277 94.8434L122.891 177.164ZM106.496 79.2691L89.6719 88.4723C83.9727 91.5934 77.3047 92.6988 70.9023 91.5777L52.0117 88.2769C51.4609 81.9957 51.793 75.7301 52.9844 69.6168C57.875 71.2223 69.2891 72.7379 77.1992 71.3551C85.4883 69.9098 93.2734 66.6558 99.5664 61.9176C102.664 67.3199 104.996 73.1441 106.496 79.2691ZM65.7227 38.6715C66.7969 36.5269 68.7695 35.0738 71.1328 34.6832C73.4883 34.2926 75.832 35.0348 77.5391 36.7183C77.5391 36.7183 89.9492 49.0113 90.6992 49.8316C86.3242 53.1871 80.7695 55.5621 74.75 56.5582C68.7305 57.5504 62.707 57.0894 57.4844 55.3238C57.9336 54.3043 65.7227 38.6715 65.7227 38.6715ZM166.82 177.164L174.832 111.195C175.926 102.187 184.141 95.7496 193.148 96.8434C201.156 97.816 207.121 104.421 207.578 112.207C202.055 112.918 196.797 115.101 192.297 118.629C185.703 123.793 181.516 131.218 180.504 139.535L175.934 177.164H166.82ZM202.934 214.98C188.652 212.851 188.137 201.101 188.664 196.765L195.395 141.343C195.922 137.007 199.629 125.14 213.609 127.074C227.59 129.007 228.406 140.949 227.879 145.289L221.148 200.707C220.621 205.046 217.215 217.109 202.934 214.98ZM306.98 76.6051C305.863 82.7066 300.367 87.0738 294.18 86.8004C290.383 86.609 287.125 89.3004 286.461 92.941L270.777 178.609C266.805 177.675 262.668 177.164 258.414 177.164H239.117L242.77 147.097C243.691 139.507 241.855 132.011 237.605 125.746L243.613 92.9137L260.461 95.9957C264.523 96.7418 268.441 94.0426 269.188 89.9684C269.934 85.8941 267.234 81.9879 263.16 81.2418L241.586 77.2926C238.316 76.6949 229.77 73.4371 231.582 62.8082C233.395 52.1793 242.801 52.2066 246.066 52.8043L296.977 62.1207C303.727 63.3551 308.215 69.8551 306.98 76.6051Z" fill="black"/>
	</svg>
	